Phylogenetic Flow Objects for Easy Manipulation and Modelling of Data on Phylogenetic Trees and Graphs • phyf
…
Turn it into a tibble-based phylogenetic flow format (pf) using as_pf():

tree_pf <- as_pf(test_tree)
tree_pf
#> # A tibble: 198 × 2
#>    node_name phyf                                                               
#>    <chr>     <pf<:198>>                                                         
#>  1 t61       root---0.2--->Node2---0.9--->Node…Node4---0.4--->Node5---0.9--->t61
#>  2 t76       root---0.2--->Node2---0.9--->Node…Node4---0.4--->Node5---0.7--->t76
#>  3 t71       root---0.2--->Node2---0.9--->Node…Node4---0.9--->Node6---0.3--->t71
#>  4 t75       root---0.2--->Node2---0.9--->Node…Node6---0.4--->Node7---0.2--->t75
#>  5 t53       root---0.2--->Node2---0.9--->Node…Node6---0.4--->Node7---0.2--->t53
#>  6 t49       root---0.2--->Node2---0.9--->Node…Node8---0.8--->Node9---0.5--->t49
#>  7 t91       root---0.2--->Node2---0.9--->Node…Node8---0.8--->Node9---0.8--->t91
#>  8 t34       root---0.2--->Node2---0.9--->Node3---0.8--->Node8---0.6--->t34     
#>  9 t45       root---0.23-->Node2---0.13-->Node…de11---0.38-->Node12---0.69-->t45
#> 10 t81       root---0.23-->Node2---0.13-->Node…de11---0.38-->Node12---0.11-->t81
#> # … with 188 more rows
…
