…
``` r
test_tree <- rtree(100) 
plot(test_tree)
```

<img src="man/figures/README-phyf_ob-1.png" width="100%" />

Turn it into a `tibble`-based phylogenetic flow format (`pf`) using
`pf_as_pf()`:

``` r
tree_pf <- pf_as_pf(test_tree)
tree_pf
#> # A tibble: 198 × 3
#>    label is_tip phlo                                                            
#>    <chr> <lgl>  <pfc>                                                           
#>  1 t62   TRUE   ◎── 0.51──→ Node2 ── 0.93──→ No…── 0.23──→ Node4 ── 0.14──→ t62 
#>  2 t55   TRUE   ◎── 0.51──→ Node2 ── 0.93──→ No…── 0.61──→ Node6 ── 0.66──→ t55 
#>  3 t74   TRUE   ◎── 0.51──→ Node2 ── 0.93──→ No…── 0.61──→ Node6 ── 0.28──→ t74 
#>  4 t1    TRUE   ◎── 0.51──→ Node2 ── 0.93──→ No… ── 0.99──→ Node7 ── 0.30──→ t1 
#>  5 t30   TRUE   ◎── 0.51──→ Node2 ── 0.93──→ No…── 0.99──→ Node7 ── 0.91──→ t30 
#>  6 t19   TRUE   ◎── 0.51──→ Node2 ── 0.93──→ No…─ 0.13──→ Node10 ── 0.52──→ t19 
#>  7 t54   TRUE   ◎── 0.51──→ Node2 ── 0.93──→ No…─ 0.17──→ Node11 ── 0.98──→ t54 
#>  8 t10   TRUE   ◎── 0.51──→ Node2 ── 0.93──→ No…─ 0.36──→ Node12 ── 0.13──→ t10 
#>  9 t34   TRUE   ◎── 0.51──→ Node2 ── 0.93──→ No…─ 0.36──→ Node12 ── 0.02──→ t34 
#> 10 t14   TRUE   ◎──0.508──→ Node2 ──0.931──→ No…─0.097──→ Node14 ──0.162──→ t14 
#> # … with 188 more rows
```
…
## Built-in Datasets

`{phyf}` includes a number of built-in datasets to demonstrate the
format. For example the [AVONET
dataset](https://figshare.com/articles/dataset/AVONET_morphological_ecological_and_geographical_data_for_all_birds_Tobias_et_al_2021_Ecology_Letters_/16586228),
can be accessed as `avonet`:

``` r
avonet
#> # A tibble: 13,338 × 39
#>    label      is_tip phlo            Speci…¹ Family3 Order3 Total…² Female  Male
#>    <chr>      <lgl>  <pfc>           <chr>   <chr>   <chr>    <dbl>  <dbl> <dbl>
#>  1 Struthio_… TRUE   ◎──   2…amelus  Struth… Struth… Strut…       8      1     4
#>  2 Rhea_amer… TRUE   ◎── 26.…ricana  Rhea a… Rheidae Rheif…       5      2     2
#>  3 Rhea_penn… TRUE   ◎── 26.…ennata  Rhea p… Rheidae Rheif…       6      3     2
#>  4 Apteryx_a… TRUE   ◎──26.8…tralis  Aptery… Aptery… Apter…       6      2     2
#>  5 Apteryx_m… TRUE   ◎──26.8…ntelli  Aptery… Aptery… Apter…       4      2     2
#>  6 Apteryx_o… TRUE   ◎──26.8…owenii  Aptery… Aptery… Apter…       5      2     3
#>  7 Apteryx_h… TRUE   ◎──26.8…aastii  Aptery… Aptery… Apter…       9      6     3
#>  8 Dromaius_… TRUE   ◎──26.8…andiae  Dromai… Dromai… Casua…       5      2     3
#>  9 Casuarius… TRUE   ◎──26.8…uarius  Casuar… Casuar… Casua…       7      2     3
#> 10 Casuarius… TRUE   ◎──26.8…nnetti  Casuar… Casuar… Casua…       4      1     0
#> # … with 13,328 more rows, 30 more variables: Unknown <dbl>,
#> #   Complete.measures <dbl>, Beak.Length_Culmen <dbl>, Beak.Length_Nares <dbl>,
#> #   Beak.Width <dbl>, Beak.Depth <dbl>, Tarsus.Length <dbl>, Wing.Length <dbl>,
#> #   Kipps.Distance <dbl>, Secondary1 <dbl>, `Hand-Wing.Index` <dbl>,
#> #   Tail.Length <dbl>, Mass <dbl>, Mass.Source <chr>, Mass.Refs.Other <chr>,
#> #   Inference <chr>, Traits.inferred <chr>, Reference.species <chr>,
#> #   Habitat <chr>, Habitat.Density <dbl>, Migration <dbl>, …
```
