pf object constructor — pf • phyf
…
pf_column
Name of the column to hold x. Default: 'phlo'

...
Reserved for future extensions. Not used.

    Value

    a pf object

    Examples

pf(rpfc(100))
#> # A tibble: 198 × 3
#>    label is_tip phlo                                                            
#>    <chr> <lgl>  <pfc>                                                           
#>  1 t37   TRUE   ◎──1.8e-01──→ Node2 ──6.8e-01──…e-05──→ Node34 ──2.9e-02──→ t37 
#>  2 t34   TRUE   ◎──1.8e-01──→ Node2 ──6.8e-01──…e-05──→ Node34 ──2.9e-02──→ t34 
#>  3 t30   TRUE   ◎── 0.18──→ Node2 ── 0.68──→ No…─ 0.28──→ Node33 ── 0.03──→ t30 
#>  4 t95   TRUE   ◎──1.8e-01──→ Node2 ──6.8e-01──…e-01──→ Node99 ──7.7e-06──→ t95 
#>  5 t98   TRUE   ◎──1.8e-01──→ Node2 ──6.8e-01──…e-01──→ Node99 ──7.7e-06──→ t98 
#>  6 t56   TRUE   ◎──0.1822──→ Node2 ──0.6802──→ ….0843──→ Node60 ──0.0095──→ t56 
#>  7 t43   TRUE   ◎──0.1822──→ Node2 ──0.6802──→ ….0843──→ Node60 ──0.0095──→ t43 
#>  8 t16   TRUE   ◎──0.182──→ Node2 ──0.680──→ No…─0.063──→ Node32 ──0.030──→ t16 
#>  9 t80   TRUE   ◎──0.1822──→ Node2 ──0.6802──→ ….0104──→ Node85 ──0.0026──→ t80 
#> 10 t79   TRUE   ◎──0.1822──→ Node2 ──0.6802──→ ….0104──→ Node85 ──0.0026──→ t79 
#> # ℹ 188 more rows
…
