Getting Started with {phyf} • phyf
…
      getting_started.Rmd

library(phyf)
#> 
#> Attaching package: 'phyf'
#> The following object is masked from 'package:stats':
#> 
#>     pf
library(ape)

test_tree <- rtree(100) 

tree_pf <- as_pf(test_tree)
tree_pf
#> # A tibble: 198 × 2
#>    node_name phyf                                                               
#>    <chr>     <pf<:198>>                                                         
#>  1 t87       root---0.04-->Node2---0.09-->Node…Node5---0.55-->Node6---0.06-->t87
#>  2 t42       root---0.04-->Node2---0.09-->Node…Node5---0.55-->Node6---0.18-->t42
#>  3 t85       root--0.045-->Node2--0.094-->Node…Node7--0.685-->Node8--0.842-->t85
#>  4 t90       root--0.045-->Node2--0.094-->Node…Node8--0.096-->Node9--0.215-->t90
#>  5 t71       root--0.045-->Node2--0.094-->Node…Node8--0.096-->Node9--0.722-->t71
#>  6 t56       root--0.045-->Node2--0.094-->Node…ode7--0.555-->Node10--0.142-->t56
#>  7 t96       root--0.045-->Node2--0.094-->Node…de11--0.571-->Node12--0.618-->t96
#>  8 t34       root--0.045-->Node2--0.094-->Node…de14--0.158-->Node15--0.957-->t34
#>  9 t46       root--0.045-->Node2--0.094-->Node…de14--0.158-->Node15--0.466-->t46
#> 10 t81       root--0.045-->Node2--0.094-->Node…de13--0.582-->Node14--0.558-->t81
#> # … with 188 more rows
…
